{
    "KPlugin": {
        "Authors": [
            {
                "Email": "plasma-devel@kde.org",
                "Name": "Plasma Team",
                "Name[ar]": "فريق بلازما",
                "Name[az]": "Plasma komandası",
                "Name[be]": "Каманда Plasma",
                "Name[bg]": "Екипът на Plasma",
                "Name[ca@valencia]": "L'equip de Plasma",
                "Name[ca]": "L'equip del Plasma",
                "Name[cs]": "Team Plasma",
                "Name[da]": "Plasma-udviklingsholdet",
                "Name[de]": "Plasma-Team",
                "Name[en_GB]": "Plasma Team",
                "Name[es]": "El equipo de Plasma",
                "Name[eu]": "Plasma taldea",
                "Name[fi]": "Plasma-työryhmä",
                "Name[fr]": "L'équipe de Plasma",
                "Name[hu]": "A Plasma fejlesztői",
                "Name[ia]": "Equipa de Plasma",
                "Name[id]": "Tim Plasma",
                "Name[is]": "Plasma-þróunarhópurinn",
                "Name[it]": "La squadra di Plasma",
                "Name[ja]": "Plasma チーム",
                "Name[ka]": "Plasma-ის გუნდი",
                "Name[ko]": "Plasma 팀",
                "Name[lt]": "Plasma komanda",
                "Name[nl]": "Team van Plasma",
                "Name[nn]": "Utviklingslaget for Plasma",
                "Name[pa]": "ਪਲਾਜ਼ਮਾ ਟੀਮ",
                "Name[pl]": "Zespół Plazmy",
                "Name[pt]": "Equipa do Plasma",
                "Name[pt_BR]": "Equipe do Plasma",
                "Name[ro]": "Echipa Plasma",
                "Name[ru]": "Команда разработчиков Plasma",
                "Name[sk]": "Tím Plasma",
                "Name[sl]": "Ekipa Plasme",
                "Name[sv]": "Plasma-gruppen",
                "Name[ta]": "பிளாஸ்மா குழு",
                "Name[tr]": "Plasma Takımı",
                "Name[uk]": "Команда розробників Плазми",
                "Name[vi]": "Đội Plasma",
                "Name[x-test]": "xxPlasma Teamxx",
                "Name[zh_CN]": "Plasma 开发团队",
                "Name[zh_TW]": "Plasma 團隊"
            }
        ],
        "Description": "Interact with the Plasma Compositor",
        "Description[ar]": "يتفاعل مع صدفة سطح مكتب بلازما",
        "Description[az]": "Plasma üz qabığı ilə qarşılıqlı əlaqə vasitəsi",
        "Description[be]": "Узаемадзеянне са сродкам кампазітынгу Plasma",
        "Description[bg]": "Взаимодейства с композитора на Plasma",
        "Description[ca@valencia]": "Interactua amb el compositor de Plasma",
        "Description[ca]": "Interactua amb el compositor del Plasma",
        "Description[cs]": "Interakce s kompozitorem pracovní plochy plasmy",
        "Description[da]": "Interaktion med Plasmas compositor",
        "Description[de]": "Interaktion mit dem Plasma-Compositor",
        "Description[en_GB]": "Interact with the Plasma Compositor",
        "Description[es]": "Interactuar con el compositor de Plasma",
        "Description[eu]": "Plasma-Konposatzailearekin elkarreragin",
        "Description[fi]": "Ole vuorovaikutuksessa Plasma-koostimen kanssa",
        "Description[fr]": "Interagir avec le compositeur de Plasma",
        "Description[hu]": "Interakció a Plasma kompozitorral",
        "Description[ia]": "Interage  con le Compositor de Plasma",
        "Description[id]": "Interaksi dengan Plasma Compositor",
        "Description[is]": "Gagnvirkni með Plasma-skjásamsetningu (Compositor)",
        "Description[it]": "Interagisci con il compositore di Plasma",
        "Description[ja]": "Plasma コンポジタと対話",
        "Description[ka]": "Plasma-ის კომპოზიტორთან კავშირი",
        "Description[ko]": "Plasma 컴포지터와 상호 작용",
        "Description[lt]": "Sąveikauti su Plasma kompozitoriumi",
        "Description[nl]": "Interactie met de Plasma Compositor",
        "Description[nn]": "Bruk Plasma-samansetjaren",
        "Description[pl]": "Współdziałanie z kompozytorem Plazmy",
        "Description[pt]": "Interacção com o Compositor do Plasma",
        "Description[pt_BR]": "Interage com o Plasma Compositor",
        "Description[ro]": "Interacționează cu compozitorul Plasma",
        "Description[ru]": "Инструмент взаимодействия с диспетчером окон в Plasma",
        "Description[sk]": "Interakcia s kompozítorom Plasma",
        "Description[sl]": "Upravljajte z upravljalnikom skladnje Plasma",
        "Description[sv]": "Interaktion med Plasma sammansättning",
        "Description[ta]": "பிளாஸ்மாவின் சாளர மேலாளியை கட்டுப்படுத்துங்கள்",
        "Description[tr]": "Plasma Bileştiricisi ile etkileşimde bulun",
        "Description[uk]": "Взаємодія із засобом композиції Плазми",
        "Description[vi]": "Tương tác với Trình kết hợp Plasma",
        "Description[x-test]": "xxInteract with the Plasma Compositorxx",
        "Description[zh_CN]": "与 Plasma 显示特效合成器进行交互",
        "EnabledByDefault": true,
        "Icon": "kwin",
        "Id": "kwin",
        "License": "LGPLv2",
        "Name": "KWin",
        "Name[ar]": "ك.وين",
        "Name[az]": "KWin",
        "Name[be]": "KWin",
        "Name[bg]": "KWin",
        "Name[ca@valencia]": "KWin",
        "Name[ca]": "KWin",
        "Name[cs]": "KWin",
        "Name[da]": "KWin",
        "Name[de]": "KWin",
        "Name[el]": "KWin",
        "Name[en_GB]": "KWin",
        "Name[es]": "KWin",
        "Name[et]": "KWin",
        "Name[eu]": "KWin",
        "Name[fi]": "KWin",
        "Name[fr]": "KWin",
        "Name[gl]": "KWin",
        "Name[he]": "מנהל חלונות KWin",
        "Name[hu]": "KWin",
        "Name[ia]": "KWin",
        "Name[id]": "KWin",
        "Name[is]": "KWin",
        "Name[it]": "KWin",
        "Name[ja]": "KWin",
        "Name[ka]": "KWin",
        "Name[ko]": "KWin",
        "Name[lt]": "KWin",
        "Name[nl]": "KWin",
        "Name[nn]": "KWin",
        "Name[pa]": "KWin",
        "Name[pl]": "KWin",
        "Name[pt]": "KWin",
        "Name[pt_BR]": "KWin",
        "Name[ro]": "KWin",
        "Name[ru]": "KWin",
        "Name[sk]": "KWin",
        "Name[sl]": "KWin",
        "Name[sr@ijekavian]": "К‑вин",
        "Name[sr@ijekavianlatin]": "KWin",
        "Name[sr@latin]": "KWin",
        "Name[sr]": "К‑вин",
        "Name[sv]": "Kwin",
        "Name[ta]": "கேவின்",
        "Name[tr]": "KWin",
        "Name[uk]": "KWin",
        "Name[vi]": "KWin",
        "Name[x-test]": "xxKWinxx",
        "Name[zh_CN]": "KWin",
        "Name[zh_TW]": "KWin"
    }
}
