{
    "KPlugin": {
        "Authors": [
            {
                "Email": "mezin.alexander@gmail.com",
                "Name": "Alexander Mezin",
                "Name[ar]": "Alexander Mezin",
                "Name[az]": "Alexander Mezin",
                "Name[be]": "Alexander Mezin",
                "Name[bg]": "Alexander Mezin",
                "Name[ca@valencia]": "Alexander Mezin",
                "Name[ca]": "Alexander Mezin",
                "Name[cs]": "Alexander Mezin",
                "Name[da]": "Alexander Mezin",
                "Name[de]": "Alexander Mezin",
                "Name[en_GB]": "Alexander Mezin",
                "Name[es]": "Alexander Mezin",
                "Name[eu]": "Alexander Mezin",
                "Name[fi]": "Alexander Mezin",
                "Name[fr]": "Alexander Mezin",
                "Name[hu]": "Alexander Mezin",
                "Name[ia]": "Alexander Mezin",
                "Name[id]": "Alexander Mezin",
                "Name[is]": "Alexander Mezin",
                "Name[it]": "Alexander Mezin",
                "Name[ja]": "Alexander Mezin",
                "Name[ka]": "ალექსანდრე მეზინი",
                "Name[ko]": "Alexander Mezin",
                "Name[lt]": "Alexander Mezin",
                "Name[nl]": "Alexander Mezin",
                "Name[nn]": "Alexander Mezin",
                "Name[pl]": "Alexander Mezin",
                "Name[pt]": "Alexander Mezin",
                "Name[pt_BR]": "Alexander Mezin",
                "Name[ro]": "Alexander Mezin",
                "Name[ru]": "Александр Мезин",
                "Name[sk]": "Alexander Mezin",
                "Name[sl]": "Alexander Mezin",
                "Name[sv]": "Alexander Mezin",
                "Name[ta]": "அலெக்சாண்டர் மெஜின்",
                "Name[tr]": "Alexander Mezin",
                "Name[uk]": "Алєксандр Мєзін",
                "Name[vi]": "Alexander Mezin",
                "Name[x-test]": "xxAlexander Mezinxx",
                "Name[zh_CN]": "Alexander Mezin"
            }
        ],
        "Category": "System Information",
        "EnabledByDefault": true,
        "Icon": "input-touchpad",
        "Id": "touchpad",
        "License": "GPL-2.0+",
        "Name": "Touchpad DataEngine",
        "Name[ar]": "محرّك بيانات لوحة اللمس",
        "Name[az]": "Toxunma Paneli Məlumatlar Modulu",
        "Name[be]": "DataEngine сэнсарнай панэлі",
        "Name[bg]": "Тъчпад DataEngine",
        "Name[ca@valencia]": "Motor de dades del ratolí tàctil",
        "Name[ca]": "Motor de dades del ratolí tàctil",
        "Name[cs]": "Datový stroj pro touchpad",
        "Name[da]": "Touchpad-datamotor",
        "Name[de]": "Touchpad-Datenquelle",
        "Name[el]": "Μηχανή δεδομένων επιφάνειας αφής",
        "Name[en_GB]": "Touchpad DataEngine",
        "Name[es]": "Motor de datos del panel táctil",
        "Name[et]": "Puutepadja andmemootor",
        "Name[eu]": "Ukimen-saguen datuen motorea",
        "Name[fi]": "Kosketuslevyn tietomoottori",
        "Name[fr]": "Moteur de données du pavé tactile",
        "Name[gl]": "DataEngine de área táctil",
        "Name[hu]": "Érintőtábla adatmodul",
        "Name[ia]": "Touchpad DataEngine (Motor de datos de pannello tactile)",
        "Name[id]": "DataEngine Touchpad",
        "Name[is]": "Gagnavél snertiplatta",
        "Name[it]": "Motore di dati del touchpad",
        "Name[ja]": "タッチパッド DataEngine",
        "Name[ka]": "თაჩპედის DataEngine",
        "Name[ko]": "터치패드 데이터 엔진",
        "Name[lt]": "Jutiklinio kilimėlio duomenų variklis",
        "Name[nl]": "Gegevensengine voor touchpad",
        "Name[nn]": "DataEngine for styreplate",
        "Name[pa]": "ਟੱਚਪੈਡ ਡਾਟਾਇੰਜਣ",
        "Name[pl]": "Silnik danych gładzika",
        "Name[pt]": "Motor de Dados do Rato por Toque",
        "Name[pt_BR]": "Mecanismo de dados do touchpad",
        "Name[ro]": "Motor de date pentru zona tactilă",
        "Name[ru]": "Модуль данных сенсорной панели",
        "Name[sk]": "Touchpad DataEngine",
        "Name[sl]": "PodatkovniPogon za sledilno ploščico",
        "Name[sr@ijekavian]": "Датомотор додирника",
        "Name[sr@ijekavianlatin]": "Datomotor dodirnika",
        "Name[sr@latin]": "Datomotor dodirnika",
        "Name[sr]": "Датомотор додирника",
        "Name[sv]": "Datagränssnitt för tryckplatta",
        "Name[ta]": "தொடுபலகைக்கான தரவுநிரல்",
        "Name[tr]": "Dokunmatik Yüzey Veri Motoru",
        "Name[uk]": "Рушій даних сенсорної панелі",
        "Name[vi]": "DataEngine bàn cảm ứng",
        "Name[x-test]": "xxTouchpad DataEnginexx",
        "Name[zh_CN]": "触摸板数据引擎",
        "Name[zh_TW]": "觸控板資料引擎",
        "ServiceTypes": [
            "Plasma/DataEngine"
        ],
        "Website": "https://projects.kde.org/projects/playground/utils/kcm-touchpad/"
    }
}
