{
    "KPlugin": {
        "BugReportUrl": "https://bugs.kde.org/enter_bug.cgi?product=systemsettings&component=kcm_plasmasearch",
        "Description": "Configure search settings",
        "Description[ar]": "اضبط شريط البحث",
        "Description[az]": "Axtarış ayarlarını tənzimləyin",
        "Description[be]": "Наладжванне пошуку",
        "Description[bg]": "Конфигуриране на настройки за търсене",
        "Description[ca@valencia]": "Configura els paràmetres de busca",
        "Description[ca]": "Configura els paràmetres de cerca",
        "Description[cs]": "Nastavit volby vyhledávání",
        "Description[da]": "Indstil søgning",
        "Description[de]": "Einstellungen für Suche ändern",
        "Description[en_GB]": "Configure search settings",
        "Description[es]": "Configurar las preferencias de búsqueda",
        "Description[eu]": "Konfiguratu bilaketa ezarpenak",
        "Description[fi]": "Hakuasetukset",
        "Description[fr]": "Configurer les paramètres de recherche",
        "Description[hu]": "Keresési beállítások módosítása",
        "Description[ia]": "Configura preferentias de cerca",
        "Description[id]": "Konfigurasikan pengaturan pencarian",
        "Description[is]": "Sýsla með leitarstillingar",
        "Description[it]": "Configura le impostazioni di ricerca",
        "Description[ja]": "検索の設定",
        "Description[ka]": "ძებნის პარამეტრების მორგება",
        "Description[ko]": "검색 설정 변경",
        "Description[lt]": "Konfigūruoti paieškos nuostatas",
        "Description[nl]": "Zoekinstellingen configureren",
        "Description[nn]": "Oppsett av søkjeinnstillingar",
        "Description[pa]": "ਖੋਜ ਸੈਟਿੰਗਾਂ ਦੀ ਸੰਰਚਨਾ",
        "Description[pl]": "Ustawienia wyszukiwania",
        "Description[pt]": "Configurar as opções de pesquisa",
        "Description[pt_BR]": "Configurar opções de pesquisa",
        "Description[ro]": "Configurează opțiunile de căutare",
        "Description[ru]": "Настройка даты и времени",
        "Description[sk]": "Zmeniť nastavenia vyhľadávania",
        "Description[sl]": "Nastavi iskanja",
        "Description[sv]": "Anpassa sökinställningar",
        "Description[ta]": "தேடலுக்கான விருப்பங்களை அமையுங்கள்",
        "Description[tr]": "Arama ayarlarını yapılandır",
        "Description[uk]": "Налаштування параметрів пошуку",
        "Description[vi]": "Cấu hình thiết lập tìm kiếm",
        "Description[x-test]": "xxConfigure search settingsxx",
        "Description[zh_CN]": "配置搜索设置",
        "Icon": "plasma-search",
        "Name": "Plasma Search",
        "Name[ar]": "بحث بلازما",
        "Name[az]": "Plasma axtarışı",
        "Name[be]": "Пошук Plasma",
        "Name[bg]": "Търсене на Plasma",
        "Name[ca@valencia]": "Busca de Plasma",
        "Name[ca]": "Cerca del Plasma",
        "Name[cs]": "Hledání Plasma",
        "Name[da]": "Plasma-søgning",
        "Name[de]": "Plasma-Suche",
        "Name[en_GB]": "Plasma Search",
        "Name[es]": "Búsqueda de Plasma",
        "Name[eu]": "Plasma bilaketa",
        "Name[fi]": "Plasma-haku",
        "Name[fr]": "Rechercher Plasma",
        "Name[hu]": "Plasma Search",
        "Name[ia]": "Cerca de Plasma",
        "Name[id]": "Pencarian Plasma",
        "Name[is]": "Plasma-leit",
        "Name[it]": "Ricerca di Plasma",
        "Name[ja]": "Plasma 検索",
        "Name[ka]": "Plasma-ის ძებნა",
        "Name[ko]": "Plasma 검색",
        "Name[lt]": "Plasma paieška",
        "Name[nb]": "Plasma-søk",
        "Name[nl]": "Plasma zoeken",
        "Name[nn]": "Plasma-søk",
        "Name[pa]": "ਪਲਾਜ਼ਮਾ ਖੋਜ",
        "Name[pl]": "Wyszukiwarka Plazmy",
        "Name[pt]": "Pesquisa do Plasma",
        "Name[pt_BR]": "Pesquisa do Plasma",
        "Name[ro]": "Căutare Plasma",
        "Name[ru]": "Поиск Plasma",
        "Name[sk]": "Vyhľadávanie Plasma",
        "Name[sl]": "Plasma iskanje",
        "Name[sv]": "Plasma-sökning",
        "Name[ta]": "பிளாஸ்மா தேடல்",
        "Name[tr]": "Plasma Arama",
        "Name[uk]": "Пошук у Плазмі",
        "Name[vi]": "Tìm kiếm Plasma",
        "Name[x-test]": "xxPlasma Searchxx",
        "Name[zh_CN]": "Plasma 搜索",
        "Name[zh_TW]": "Plasma 搜尋"
    },
    "X-KDE-Keywords": "search,file,baloo,runners,krunner,launcher,app launcher,desktop search,k runner,find,plugins,computer search,overview,web search keywords",
    "X-KDE-System-Settings-Parent-Category": "search",
    "X-KDE-Weight": 20
}
